Chapter 18 Number of populations per species study | Dinamica_Poblacional
…
Code

subset(index_O, Family =="Orchidaceae"  &
             MatrixDimension >2)

## A COM(P)ADRE database ('CompadreDB') object with 46 SPECIES and 647 MATRICES.
## 
## # A tibble: 647 × 59
##    mat        MatrixID SpeciesAuthor   SpeciesAccepted CommonName Kingdom Phylum
##    <list>        <int> <chr>           <chr>           <chr>      <chr>   <chr> 
##  1 <CompdrMt>   238285 Caladenia_amon… Caladenia amon… <NA>       Plantae Trach…
##  2 <CompdrMt>   238286 Caladenia_argo… Caladenia argo… <NA>       Plantae Trach…
##  3 <CompdrMt>   238287 Caladenia_clav… Caladenia clav… <NA>       Plantae Trach…
##  4 <CompdrMt>   238288 Caladenia_eleg… Caladenia eleg… <NA>       Plantae Trach…
##  5 <CompdrMt>   238289 Caladenia_gran… Caladenia gran… <NA>       Plantae Trach…
##  6 <CompdrMt>   238290 Caladenia_macr… Caladenia macr… <NA>       Plantae Trach…
##  7 <CompdrMt>   238291 Caladenia_oeno… Caladenia oeno… <NA>       Plantae Trach…
##  8 <CompdrMt>   238292 Caladenia_rose… Caladenia rose… <NA>       Plantae Trach…
##  9 <CompdrMt>   238293 Caladenia_vali… Caladenia vali… <NA>       Plantae Trach…
## 10 <CompdrMt>   238565 Epipactis_atro… Epipactis atro… Darkred h… Plantae Trach…
## # ℹ 637 more rows
## # ℹ 52 more variables: Class <chr>, Order <chr>, Family <chr>, Genus <chr>,
## #   Species <chr>, Infraspecies <chr>, InfraspeciesType <chr>,
## #   OrganismType <chr>, DicotMonoc <chr>, AngioGymno <chr>, Authors <chr>,
## #   Journal <chr>, SourceType <chr>, OtherType <chr>, YearPublication <chr>,
## #   DOI_ISBN <chr>, AdditionalSource <chr>, StudyDuration <dbl>,
## #   StudyStart <chr>, StudyEnd <chr>, ProjectionInterval <chr>, …
…
Code

#Orchids_New=as_cdb(index)
#compadre$mat[index]

Compadre_flagged <- cdb_flag(index_O)

x <- subset(Compadre_flagged, check_NA_A == FALSE & check_ergodic == TRUE)
x

## A COM(P)ADRE database ('CompadreDB') object with 45 SPECIES and 484 MATRICES.
## 
## # A tibble: 484 × 73
##    mat        MatrixID SpeciesAuthor   SpeciesAccepted CommonName Kingdom Phylum
##    <list>        <int> <chr>           <chr>           <chr>      <chr>   <chr> 
##  1 <CompdrMt>   238285 Caladenia_amon… Caladenia amon… <NA>       Plantae Trach…
##  2 <CompdrMt>   238286 Caladenia_argo… Caladenia argo… <NA>       Plantae Trach…
##  3 <CompdrMt>   238287 Caladenia_clav… Caladenia clav… <NA>       Plantae Trach…
##  4 <CompdrMt>   238288 Caladenia_eleg… Caladenia eleg… <NA>       Plantae Trach…
##  5 <CompdrMt>   238289 Caladenia_gran… Caladenia gran… <NA>       Plantae Trach…
##  6 <CompdrMt>   238290 Caladenia_macr… Caladenia macr… <NA>       Plantae Trach…
##  7 <CompdrMt>   238291 Caladenia_oeno… Caladenia oeno… <NA>       Plantae Trach…
##  8 <CompdrMt>   238292 Caladenia_rose… Caladenia rose… <NA>       Plantae Trach…
##  9 <CompdrMt>   238293 Caladenia_vali… Caladenia vali… <NA>       Plantae Trach…
## 10 <CompdrMt>   238565 Epipactis_atro… Epipactis atro… Darkred h… Plantae Trach…
## # ℹ 474 more rows
## # ℹ 66 more variables: Class <chr>, Order <chr>, Family <chr>, Genus <chr>,
## #   Species <chr>, Infraspecies <chr>, InfraspeciesType <chr>,
## #   OrganismType <chr>, DicotMonoc <chr>, AngioGymno <chr>, Authors <chr>,
## #   Journal <chr>, SourceType <chr>, OtherType <chr>, YearPublication <chr>,
## #   DOI_ISBN <chr>, AdditionalSource <chr>, StudyDuration <dbl>,
## #   StudyStart <chr>, StudyEnd <chr>, ProjectionInterval <chr>, …

Code

y <- subset(Compadre_flagged, check_NA_A == FALSE & check_irreducible == TRUE)

y

## A COM(P)ADRE database ('CompadreDB') object with 43 SPECIES and 360 MATRICES.
## 
## # A tibble: 360 × 73
##    mat        MatrixID SpeciesAuthor   SpeciesAccepted CommonName Kingdom Phylum
##    <list>        <int> <chr>           <chr>           <chr>      <chr>   <chr> 
##  1 <CompdrMt>   238285 Caladenia_amon… Caladenia amon… <NA>       Plantae Trach…
##  2 <CompdrMt>   238286 Caladenia_argo… Caladenia argo… <NA>       Plantae Trach…
##  3 <CompdrMt>   238287 Caladenia_clav… Caladenia clav… <NA>       Plantae Trach…
##  4 <CompdrMt>   238288 Caladenia_eleg… Caladenia eleg… <NA>       Plantae Trach…
##  5 <CompdrMt>   238289 Caladenia_gran… Caladenia gran… <NA>       Plantae Trach…
##  6 <CompdrMt>   238290 Caladenia_macr… Caladenia macr… <NA>       Plantae Trach…
##  7 <CompdrMt>   238291 Caladenia_oeno… Caladenia oeno… <NA>       Plantae Trach…
##  8 <CompdrMt>   238292 Caladenia_rose… Caladenia rose… <NA>       Plantae Trach…
##  9 <CompdrMt>   238293 Caladenia_vali… Caladenia vali… <NA>       Plantae Trach…
## 10 <CompdrMt>   238565 Epipactis_atro… Epipactis atro… Darkred h… Plantae Trach…
## # ℹ 350 more rows
## # ℹ 66 more variables: Class <chr>, Order <chr>, Family <chr>, Genus <chr>,
## #   Species <chr>, Infraspecies <chr>, InfraspeciesType <chr>,
## #   OrganismType <chr>, DicotMonoc <chr>, AngioGymno <chr>, Authors <chr>,
## #   Journal <chr>, SourceType <chr>, OtherType <chr>, YearPublication <chr>,
## #   DOI_ISBN <chr>, AdditionalSource <chr>, StudyDuration <dbl>,
## #   StudyStart <chr>, StudyEnd <chr>, ProjectionInterval <chr>, …

Code

xy <- subset(Compadre_flagged, check_NA_A == FALSE & check_irreducible == TRUE & check_ergodic == TRUE)
xy

## A COM(P)ADRE database ('CompadreDB') object with 43 SPECIES and 360 MATRICES.
## 
## # A tibble: 360 × 73
##    mat        MatrixID SpeciesAuthor   SpeciesAccepted CommonName Kingdom Phylum
##    <list>        <int> <chr>           <chr>           <chr>      <chr>   <chr> 
##  1 <CompdrMt>   238285 Caladenia_amon… Caladenia amon… <NA>       Plantae Trach…
##  2 <CompdrMt>   238286 Caladenia_argo… Caladenia argo… <NA>       Plantae Trach…
##  3 <CompdrMt>   238287 Caladenia_clav… Caladenia clav… <NA>       Plantae Trach…
##  4 <CompdrMt>   238288 Caladenia_eleg… Caladenia eleg… <NA>       Plantae Trach…
##  5 <CompdrMt>   238289 Caladenia_gran… Caladenia gran… <NA>       Plantae Trach…
##  6 <CompdrMt>   238290 Caladenia_macr… Caladenia macr… <NA>       Plantae Trach…
##  7 <CompdrMt>   238291 Caladenia_oeno… Caladenia oeno… <NA>       Plantae Trach…
##  8 <CompdrMt>   238292 Caladenia_rose… Caladenia rose… <NA>       Plantae Trach…
##  9 <CompdrMt>   238293 Caladenia_vali… Caladenia vali… <NA>       Plantae Trach…
## 10 <CompdrMt>   238565 Epipactis_atro… Epipactis atro… Darkred h… Plantae Trach…
## # ℹ 350 more rows
## # ℹ 66 more variables: Class <chr>, Order <chr>, Family <chr>, Genus <chr>,
## #   Species <chr>, Infraspecies <chr>, InfraspeciesType <chr>,
## #   OrganismType <chr>, DicotMonoc <chr>, AngioGymno <chr>, Authors <chr>,
## #   Journal <chr>, SourceType <chr>, OtherType <chr>, YearPublication <chr>,
## #   DOI_ISBN <chr>, AdditionalSource <chr>, StudyDuration <dbl>,
## #   StudyStart <chr>, StudyEnd <chr>, ProjectionInterval <chr>, …
…
## Saving 7 x 5 in image
## `stat_bin()` using `bins = 30`. Pick better value with
## `binwidth`.

The number of populations

Code

x2 %>% 
  group_by(SpeciesAccepted) %>% 
  summarize(n_populations = length(unique(MatrixPopulation))) %>% 
  arrange(desc(n_populations))

## # A tibble: 43 × 2
##    SpeciesAccepted          n_populations
##    <chr>                            <int>
##  1 Lepanthes rubripetala               20
##  2 Lepanthes rupestris                 14
##  3 Lepanthes caritensis                13
##  4 Cypripedium calceolus                8
##  5 Orchis purpurea                      7
##  6 Neotinea ustulata                    6
##  7 Serapias cordigera                   6
##  8 Cypripedium fasciculatum             4
##  9 Epipactis atrorubens                 4
## 10 Oeceoclades maculata                 4
## # ℹ 33 more rows

Code

compadre_replicated_pops <- x2 %>% 
  group_by(SpeciesAccepted) %>% 
  mutate(n_pops = length(unique(MatrixPopulation))) %>% 
  ungroup() %>%
  subset(n_pops >= 10)

compadre_replicated_pops

## A COM(P)ADRE database ('CompadreDB') object with 3 SPECIES and 88 MATRICES.
## 
## # A tibble: 88 × 74
##    mat        MatrixID SpeciesAuthor   SpeciesAccepted CommonName Kingdom Phylum
##    <list>        <int> <chr>           <chr>           <chr>      <chr>   <chr> 
##  1 <CompdrMt>   238838 Lepanthes_rubr… Lepanthes rubr… <NA>       Plantae Magno…
##  2 <CompdrMt>   239751 Lepanthes_cari… Lepanthes cari… <NA>       Plantae Magno…
##  3 <CompdrMt>   239752 Lepanthes_cari… Lepanthes cari… <NA>       Plantae Magno…
##  4 <CompdrMt>   239756 Lepanthes_cari… Lepanthes cari… <NA>       Plantae Magno…
##  5 <CompdrMt>   239764 Lepanthes_cari… Lepanthes cari… <NA>       Plantae Magno…
##  6 <CompdrMt>   239769 Lepanthes_cari… Lepanthes cari… <NA>       Plantae Magno…
##  7 <CompdrMt>   239771 Lepanthes_cari… Lepanthes cari… <NA>       Plantae Magno…
##  8 <CompdrMt>   239772 Lepanthes_cari… Lepanthes cari… <NA>       Plantae Magno…
##  9 <CompdrMt>   239775 Lepanthes_cari… Lepanthes cari… <NA>       Plantae Magno…
## 10 <CompdrMt>   239776 Lepanthes_cari… Lepanthes cari… <NA>       Plantae Magno…
## # ℹ 78 more rows
## # ℹ 67 more variables: Class <chr>, Order <chr>, Family <chr>, Genus <chr>,
## #   Species <chr>, Infraspecies <chr>, InfraspeciesType <chr>,
## #   OrganismType <chr>, DicotMonoc <chr>, AngioGymno <chr>, Authors <chr>,
## #   Journal <chr>, SourceType <chr>, OtherType <chr>, YearPublication <chr>,
## #   DOI_ISBN <chr>, AdditionalSource <chr>, StudyDuration <dbl>,
## #   StudyStart <chr>, StudyEnd <chr>, ProjectionInterval <chr>, …
…
## [1] Herbaceous perennial Epiphyte            
## Levels: Epiphyte Herbaceous perennial

Code

Cf=cdb_flatten(compadre_life_expect)

YSEC_T=Cf %>% 
  dplyr::select("life_expectancy", "OrganismType") %>% 
  filter(OrganismType== "Herbaceous perennial")

YSEC_T

## # A tibble: 21 × 2
##    life_expectancy OrganismType        
##              <dbl> <fct>               
##  1            6.96 Herbaceous perennial
##  2            2.27 Herbaceous perennial
##  3            5.89 Herbaceous perennial
##  4            3.01 Herbaceous perennial
##  5            3.65 Herbaceous perennial
##  6            2.31 Herbaceous perennial
##  7            3.94 Herbaceous perennial
##  8            4.48 Herbaceous perennial
##  9            2.55 Herbaceous perennial
## 10           21.2  Herbaceous perennial
## # ℹ 11 more rows
…
